너 말도 없이 어딜 나갔다 와?
아. 갈 데가 좀 있었어.언니. 나 오백원만..아니 천원만 좀 줘봐봐. 내일 준비물 사야 돼.
천원?이번엔 진짜 준비물 사는 거 맞지?
아 맞다니까.아 빨리 좀 내놔 좀.
나랑 같이 가서 사. 너 못 믿겠어.
아 그러지 말고 빨리 줘! 빨리 좀!
야. 신신애. 너 지금 뭐하는 거야?
내가 달라면 그냥 좀 주면 되지! 뭘 그렇게 따져!!줘 빨리!아 빨리이~! 시간 없어~
