결재 좀...
그건 언제까지 그러고 있어야 된대?
내일 가서 풀기로 했습니다.
근데 현경이 말이야. 걔 뭐 이상한 낌새 없어?
무슨 낌새요?
어제부터 느낌이 좀 이상한데..너한테 무슨 말 안해?
글쎄요 뭐. 별 말 없었는데. 왜요?
..거 뭔가..느낌이 좀 이상한데..
뭐가요?
됐어. 나가봐.
부르셨어요?
저게 맨날..안 불렀어!
뇌종양입니다.
뇌종양이요?/뇌종양?
네..
아니 갑자기..
상태가 어느 정도인..?
진행이 많이 됐어요..이 골수까지 지금 전이가 돼서..
그럼..?/수술하면..?
수술해도 성공가능성이..글쎄요..
...
나가! 여기가 어디라고 들어와! 이 망할 영감탱이야!
장모님. 진정하세요..
저 얼굴 좀 치워 제발! 당장!
여보. 그건 진짜 오해라니까..
나가! 안 나가?!
여보..
엄마..불쌍한 우리 엄마~~어엉~~
야..너..여기서 이럼..
나가요 아버진!!
