짠! 아빠가 백화점 갔다가 우리 공주님 가방 하나 사왔지요~
우와! 이쁘다! 딱 내스타일이야!
이 가방이랑 번갈아 가면서 써.
그건 후져. 버려. 이제 이거 쓸거야.
왜. 이 가방도 거의 새건데 같이 써야지. 이것도 이쁘잖아.
됐어! 이쁘면 아빠나 메.
아!
자랑해야지!비켜!엄마! 나 새 가방 샀다!
하하. 자식 참.
저기..피나세요. 이마에.
어?아..
저..아저씨..
어..왜? 아..
이 헌 가방..버리실 거면 제가 좀 써도 돼요?
어. 그래. 아..
감사합니다.
